\relax 
\providecommand\hyper@newdestlabel[2]{}
\providecommand\HyperFirstAtBeginDocument{\AtBeginDocument}
\HyperFirstAtBeginDocument{\ifx\hyper@anchor\@undefined
\global\let\oldcontentsline\contentsline
\gdef\contentsline#1#2#3#4{\oldcontentsline{#1}{#2}{#3}}
\global\let\oldnewlabel\newlabel
\gdef\newlabel#1#2{\newlabelxx{#1}#2}
\gdef\newlabelxx#1#2#3#4#5#6{\oldnewlabel{#1}{{#2}{#3}}}
\AtEndDocument{\ifx\hyper@anchor\@undefined
\let\contentsline\oldcontentsline
\let\newlabel\oldnewlabel
\fi}
\fi}
\global\let\hyper@last\relax 
\gdef\HyperFirstAtBeginDocument#1{#1}
\providecommand\HyField@AuxAddToFields[1]{}
\providecommand\HyField@AuxAddToCoFields[2]{}
\@nameuse{bbl@beforestart}
\catcode `"\active 
\providecommand\@newglossary[4]{}
\@newglossary{main}{glg}{gls}{glo}
\@newglossary{acronym}{alg}{acr}{acn}
\babel@aux{portuguese}{}
\@writefile{toc}{\contentsline {section}{\numberline {1}Introdução}{2}{section.1}\protected@file@percent }
\@writefile{toc}{\contentsline {paragraph}{}{2}{section*.3}\protected@file@percent }
\@writefile{toc}{\contentsline {section}{\numberline {2}Arquitetura conceptual}{2}{section.2}\protected@file@percent }
\@writefile{toc}{\contentsline {subsection}{\numberline {2.1}\textit  {Client}}{2}{subsection.2.1}\protected@file@percent }
\@writefile{toc}{\contentsline {paragraph}{}{2}{section*.4}\protected@file@percent }
\@writefile{lof}{\contentsline {figure}{\numberline {1}{\ignorespaces Arquitetura \textit  {Client}\relax }}{2}{figure.caption.5}\protected@file@percent }
\providecommand*\caption@xref[2]{\@setref\relax\@undefined{#1}}
\newlabel{fig:arc_client}{{1}{2}{Arquitetura \textit {Client}\relax }{figure.caption.5}{}}
\@writefile{toc}{\contentsline {subsection}{\numberline {2.2}\textit  {Server}}{3}{subsection.2.2}\protected@file@percent }
\@writefile{toc}{\contentsline {paragraph}{}{3}{section*.6}\protected@file@percent }
\@writefile{lof}{\contentsline {figure}{\numberline {2}{\ignorespaces Arquitetura \textit  {Server}\relax }}{3}{figure.caption.7}\protected@file@percent }
\newlabel{fig:arc_server}{{2}{3}{Arquitetura \textit {Server}\relax }{figure.caption.7}{}}
\@writefile{toc}{\contentsline {section}{\numberline {3}Protocolo de comunicação}{4}{section.3}\protected@file@percent }
\@writefile{toc}{\contentsline {paragraph}{}{4}{section*.8}\protected@file@percent }
\@writefile{lof}{\contentsline {figure}{\numberline {3}{\ignorespaces Protocolo de comunicação\relax }}{4}{figure.caption.9}\protected@file@percent }
\newlabel{fig:coms}{{3}{4}{Protocolo de comunicação\relax }{figure.caption.9}{}}
\@writefile{toc}{\contentsline {section}{\numberline {4}Instalação}{4}{section.4}\protected@file@percent }
\@writefile{toc}{\contentsline {subsection}{\numberline {4.1}Dependências}{4}{subsection.4.1}\protected@file@percent }
\@writefile{toc}{\contentsline {subsection}{\numberline {4.2}Compilação}{5}{subsection.4.2}\protected@file@percent }
\@writefile{toc}{\contentsline {subsubsection}{\numberline {4.2.1}Execução}{5}{subsubsection.4.2.1}\protected@file@percent }
\@writefile{toc}{\contentsline {section}{\numberline {5}Exemplo Uso}{6}{section.5}\protected@file@percent }
\@writefile{toc}{\contentsline {subsection}{\numberline {5.1}Registo / \textit  {Login}}{6}{subsection.5.1}\protected@file@percent }
\newlabel{fig:registo}{{4a}{6}{Registo\relax }{figure.caption.10}{}}
\newlabel{sub@fig:registo}{{a}{6}{Registo\relax }{figure.caption.10}{}}
\newlabel{fig:login}{{4b}{6}{\textit {Login}\relax }{figure.caption.10}{}}
\newlabel{sub@fig:login}{{b}{6}{\textit {Login}\relax }{figure.caption.10}{}}
\@writefile{lof}{\contentsline {figure}{\numberline {4}{\ignorespaces \textit  {Login} / Registo\relax }}{6}{figure.caption.10}\protected@file@percent }
\@writefile{toc}{\contentsline {subsection}{\numberline {5.2}Menu}{6}{subsection.5.2}\protected@file@percent }
\@writefile{lof}{\contentsline {figure}{\numberline {5}{\ignorespaces Menu\relax }}{6}{figure.caption.11}\protected@file@percent }
\newlabel{fig:menu}{{5}{6}{Menu\relax }{figure.caption.11}{}}
\@writefile{toc}{\contentsline {subsection}{\numberline {5.3}Adicionar Contactos / Contactos}{7}{subsection.5.3}\protected@file@percent }
\newlabel{fig:add_contacts}{{6a}{7}{Adicionar Contactos\relax }{figure.caption.12}{}}
\newlabel{sub@fig:add_contacts}{{a}{7}{Adicionar Contactos\relax }{figure.caption.12}{}}
\newlabel{fig:contacts}{{6b}{7}{Contactos\relax }{figure.caption.12}{}}
\newlabel{sub@fig:contacts}{{b}{7}{Contactos\relax }{figure.caption.12}{}}
\@writefile{lof}{\contentsline {figure}{\numberline {6}{\ignorespaces Adicionar Contactos / Contactos\relax }}{7}{figure.caption.12}\protected@file@percent }
\@writefile{toc}{\contentsline {subsection}{\numberline {5.4}\textit  {Set Infected} / Resultado Teste}{7}{subsection.5.4}\protected@file@percent }
\newlabel{fig:set_infected}{{7a}{7}{\textit {Set Infected}\relax }{figure.caption.13}{}}
\newlabel{sub@fig:set_infected}{{a}{7}{\textit {Set Infected}\relax }{figure.caption.13}{}}
\newlabel{fig:test_result}{{7b}{7}{Resultado Teste\relax }{figure.caption.13}{}}
\newlabel{sub@fig:test_result}{{b}{7}{Resultado Teste\relax }{figure.caption.13}{}}
\@writefile{lof}{\contentsline {figure}{\numberline {7}{\ignorespaces \textit  {Set Infected} / Resultado Teste\relax }}{7}{figure.caption.13}\protected@file@percent }
\@writefile{toc}{\contentsline {subsection}{\numberline {5.5}\textit  {Multicast} / \textit  {Broadcast}}{8}{subsection.5.5}\protected@file@percent }
\newlabel{fig:multicast}{{8a}{8}{\textit {Multicast}\relax }{figure.caption.14}{}}
\newlabel{sub@fig:multicast}{{a}{8}{\textit {Multicast}\relax }{figure.caption.14}{}}
\newlabel{fig:broadcast}{{8b}{8}{\textit {Broadcast}\relax }{figure.caption.14}{}}
\newlabel{sub@fig:broadcast}{{b}{8}{\textit {Broadcast}\relax }{figure.caption.14}{}}
\@writefile{lof}{\contentsline {figure}{\numberline {8}{\ignorespaces \textit  {Multicast} / \textit  {Broadcast}\relax }}{8}{figure.caption.14}\protected@file@percent }
\@writefile{toc}{\contentsline {section}{\numberline {6}Conclusão}{8}{section.6}\protected@file@percent }
